[
{
	"key":"type",
	"defval":0,
	"label":"Library Type",
	"desc":"Type of the library.",
	"expert":false,
	"choices":[[0, "Public Library"], [1, "Home Library"], [2, "School Library"]]
},
{
	"key":"name",
	"defval":"",
	"label":"Library Name",
	"desc":"Name of library/home/school.",
	"expert":false,
	"choices":[]
},
{
	"key":"address1",
	"defval":"",
	"label":"Address line 1",
	"desc":"Room/building name/number, house name...",
	"expert":false,
	"choices":[]
},
{
	"key":"address2",
	"defval":"",
	"label":"Address line 2",
	"desc":"Locality, Postbox...",
	"expert":false,
	"choices":[]
},
{
	"key":"city",
	"defval":"",
	"label":"District/City",
	"desc":"Name of district/city.",
	"expert":false,
	"choices":[]
},
{
	"key":"pincode",
	"defval":"",
	"label":"Pincode/Zip",
	"desc":"Pincode or Zip code.",
	"expert":false,
	"choices":[]
},
{
	"key":"country",
	"defval":"IN",
	"label":"Country",
	"desc":"Name of country or pick other.",
	"expert":false,
	"choices":[["AU", "Australia"], ["BH", "Bahrain"], ["CA", "Canada"],
		["DE", "Germany"], ["IN", "India"], ["IE", "Ireland"],
		["KW", "Kuwait"],["MY", "Malaysia"], ["OM", "Oman"],
		["PL", "Poland"], ["QA", "Qatar"], ["SA", "Saudi Arabia"],
		["SG", "Singapore"], ["AE", "United Arab Emirates"],
		["GB", "United Kingdom"], ["US", "United States"],
		["XX", "Other"]]
},
{
	"key":"email",
	"defval":"",
	"label":"E-Mail",
	"desc":"Communication email to be shown in reports.",
	"expert":false,
	"choices":[]
},
{
	"key":"phone",
	"defval":"",
	"label":"Phone Number",
	"desc":"Communication phone number to be shown in reports.",
	"expert":false,
	"choices":[]
},
{
	"key":"regno",
	"defval":"",
	"label":"Registeration Number",
	"desc":"Affiliation or registeration number with relevant authorities.",
	"expert":false,
	"choices":[]
},
{
	"key":"loanPeriod",
	"defval":5,
	"label":"Book loan period",
	"desc":"Default number of days a book is loaned out for.",
	"expert":false,
	"choices":[]
},
{
	"key":"classification",
	"defval":"${cat}${acc}",
	"label":"Classification coding",
	"desc":"Format used for book classification.",
	"expert":false,
	"choices":[
		["${cat}${acc}", "Category Code + Stock/Accession No"],
		["${cat}${idx}", "Category Code + Book Index"]
	]
},
{
	"key":"fontFace",
	"defval":"Noto Sans Malayalam UI",
	"label":"UI font name",
	"desc":"The font used for rendering UI",
	"expert":false,
	"choices":[]
},
{
	"key":"fontSize",
	"defval":12,
	"label":"UI Font Size",
	"desc":"The size of font used for rendering UI.",
	"expert":false,
	"choices":[]
},
{
	"key":"aliasAccn",
	"defval":"Stock #",
	"label":"Accession Number alias",
	"desc":"Libraries may call accession number as 'Stock no', 'Serial No'  etc.",
	"expert":false,
	"choices":[]
},
{
	"key":"aliasCall",
	"defval":"Catlog #",
	"label":"Call Number alias",
	"desc":"Libraries may call accession number as 'Catlog no', 'Category No', etc.",
	"expert":false,
	"choices":[]
},
{
	"key":"barcode",
	"defval":0,
	"label":"",
	"desc":"",
	"expert":false,
	"choices":[ [ 0, "NA" ], [ 1, "Books" ], [ 2, "Members" ], [ 3, "Books & Members" ]]
},
{
	"key":"memberBarcode",
	"defval":"^(\\d*-?\\w+\\d+)$",
	"label":"Member Barcode regex",
	"desc":"",
	"expert":true,
	"choices":""
},
{
	"key":"bookBarcode",
	"defval":"^(\\d*-?\\w+\\d+)$",
	"label":"Book Barcode regex",
	"desc":"",
	"expert":true,
	"choices":""
},
{
	"key":"lang",
	"defval":"EN-US",
	"label":"Language",
	"desc":"UI Language",
	"expert":false,
	"choices":[ [ "EN-US", "English" ], [ "ML-IN", "Malayalam" ] ]
},
{
	"key":"libcatAPIv2",
	"defval":"https://libcat.in/api/v2",
	"label":"API URL v2",
	"desc":"",
	"expert":true,
	"choices":[]
},
{
	"key":"type",
	"defval":0,
	"label":"Library type",
	"desc":"Type of library",
	"expert":true,
	"choices":[  ]
},
{
	"key":"update",
	"defval":1,
	"label":"Enable update",
	"desc":"",
	"expert":false,
	"choices":[ [ 1, "enabled" ], [ 0, "disabled" ] ]
},
{
	"key":"defaultMGroup",
	"defval":0,
	"label":"",
	"desc":"",
	"expert":false,
	"choices":[  ]
},
{
	"key":"defaultCategory",
	"defval":0,
	"label":"",
	"desc":"",
	"expert":false,
	"choices":[  ]
},
{
	"key":"editableMembNo",
	"defval":1,
	"label":"",
	"desc":"",
	"expert":false,
	"choices":[ [ 1, "enabled" ], [ 0, "disabled" ] ]
},
{
	"key":"editableBookNo",
	"defval":1,
	"label":"",
	"desc":"",
	"expert":false,
	"choices":[ [ 1, "enabled" ], [ 0, "disabled" ] ]
},
{
	"key":"formatCallNo",
	"defval":0,
	"label":"",
	"desc":"",
	"expert":false,
	"choices":[  ]
}
]
